// SPDX-FileCopyrightText: 2022 Risk.Ident GmbH <contact@riskident.com>
//
// SPDX-License-Identifier: CC0-1.0

module github.com/RiskIdent/jelease

go 1.20

require (
	github.com/andygrunwald/go-jira v1.15.1
	github.com/bradleyfalzon/ghinstallation/v2 v2.1.1-0.20221216144751-8f41e6541ca6
	github.com/fatih/color v1.13.0
	github.com/gin-gonic/gin v1.8.1
	github.com/golang-jwt/jwt/v4 v4.4.3
	github.com/google/go-github/v48 v48.2.0
	github.com/invopop/jsonschema v0.7.0
	github.com/mitchellh/mapstructure v1.5.0
	github.com/rs/zerolog v1.28.0
	github.com/spf13/cobra v1.6.1
	github.com/spf13/pflag v1.0.5
	github.com/spf13/viper v1.14.0
	github.com/trivago/tgo v1.0.7
	golang.org/x/exp v0.0.0-20221212164502-fae10dda9338
	golang.org/x/oauth2 v0.0.0-20221014153046-6fdb5e3db783
	gopkg.in/typ.v4 v4.2.0
	gopkg.in/yaml.v3 v3.0.1
	newreleases.io/newreleases v1.10.0
)

require (
	github.com/fatih/structs v1.1.0 // indirect
	github.com/fsnotify/fsnotify v1.6.0 // indirect
	github.com/gin-contrib/sse v0.1.0 // indirect
	github.com/go-playground/locales v0.14.0 // indirect
	github.com/go-playground/universal-translator v0.18.0 // indirect
	github.com/go-playground/validator/v10 v10.11.1 // indirect
	github.com/goccy/go-json v0.10.0 // indirect
	github.com/golang/protobuf v1.5.2 // indirect
	github.com/google/go-querystring v1.1.0 // indirect
	github.com/hashicorp/hcl v1.0.0 // indirect
	github.com/iancoleman/orderedmap v0.2.0 // indirect
	github.com/inconshreveable/mousetrap v1.1.0 // indirect
	github.com/json-iterator/go v1.1.12 // indirect
	github.com/leodido/go-urn v1.2.1 // indirect
	github.com/magiconair/properties v1.8.7 // indirect
	github.com/mattn/go-colorable v0.1.13 // indirect
	github.com/mattn/go-isatty v0.0.16 // indirect
	github.com/modern-go/concurrent v0.0.0-20180306012644-bacd9c7ef1dd // indirect
	github.com/modern-go/reflect2 v1.0.2 // indirect
	github.com/pelletier/go-toml v1.9.5 // indirect
	github.com/pelletier/go-toml/v2 v2.0.6 // indirect
	github.com/pkg/errors v0.9.1 // indirect
	github.com/spf13/afero v1.9.3 // indirect
	github.com/spf13/cast v1.5.0 // indirect
	github.com/spf13/jwalterweatherman v1.1.0 // indirect
	github.com/subosito/gotenv v1.4.1 // indirect
	github.com/ugorji/go/codec v1.2.7 // indirect
	golang.org/x/crypto v0.4.0 // indirect
	golang.org/x/net v0.4.0 // indirect
	golang.org/x/sys v0.3.0 // indirect
	golang.org/x/text v0.5.0 // indirect
	google.golang.org/appengine v1.6.7 // indirect
	google.golang.org/protobuf v1.28.1 // indirect
	gopkg.in/ini.v1 v1.67.0 // indirect
	gopkg.in/yaml.v2 v2.4.0 // indirect
)
